{"LineNo":"S2", "Stops":[
    {"No" : 1, "Name" : "W-wa Lotnisko Chopina", "Street": "Okięcie", "Zone" : 1, "DisableAccess" : 2, "RiverZone" : 0 },
    {"No" : 2, "Name" : "W-wa Służewiec", "Street": "Wyczółki", "Zone" : 1, "DisableAccess" : 2, "RiverZone" : 0 },
    {"No" : 3, "Name" : "W-wa Żwirki i Wigury", "Street": "Rakowiec", "Zone" : 1, "DisableAccess" : 2, "RiverZone" : 0 },
    {"No" : 4, "Name" : "W-wa Rakowiec", "Street": "Rakowiec", "Zone" : 1, "DisableAccess" : 2, "RiverZone" : 0 },
    {"No" : 5, "Name" : "W-wa Al.Jerozolimskie", "Street": "Szczęśliwice", "Zone" : 1, "DisableAccess" : 2, "RiverZone" : 0 },
    {"No" : 6, "Name" : "W-wa Zachodnia", "Street": "Czyste", "Zone" : 2, "DisableAccess" : 2, "RiverZone" : 0 },
    {"No" : 7, "Name" : "W-wa Centrum", "Street": "Srodmiejście Pln.", "Zone" : 2, "DisableAccess" : 1, "RiverZone" : 0 },
    {"No" : 8, "Name" : "W-wa Wschodnia", "Street": "Kamionek", "Zone" : 2, "DisableAccess" : 0, "RiverZone" : 0 },
    {"No" : 9, "Name" : "W-wa Rembertow", "Street": "Nowy Rembertów", "Zone" : 2, "DisableAccess" : 2, "RiverZone" : 0 },
    {"No" : 10, "Name" : "W-wa Wesola", "Street": "Wesola Centrum", "Zone" : 2, "DisableAccess" : 2, "RiverZone" : 0 },
    {"No" : 11, "Name" : "Sulejówek", "Street": "Sulejówek", "Zone" : 2, "DisableAccess" : 2, "RiverZone" : 0 }
    ],
    "CurrentStopNo" : 4,
    "NextStopNo" : -1
    }